<?xml version="1.0" standalone="no"?>
<!DOCTYPE svg PUBLIC "-//W3C//DTD SVG 1.1//EN" "http://www.w3.org/Graphics/SVG/1.1/DTD/svg11.dtd">
<svg width="150" height="150" version="1.1" xmlns="http://www.w3.org/2000/svg" xmlns:xlink="http://www.w3.org/1999/xlink"><rect x="0" y="0" width="150" height="150" style="stroke:#ffffff;fill:#000000;stroke-width:8;"/><text x="75" y="115" text-anchor="middle" dominant-baseline="auto" font-family="sans-serif" font-size="110" style="fill:white;">5</text><text x="75" y="20" text-anchor="middle" dominant-baseline="middle" font-family="sans-serif" font-size="16" style="fill:white;">Woche</text><text x="75" y="140" text-anchor="middle" dominant-baseline="middle" font-family="sans-serif" font-size="16" style="fill:white;">Teilzeit</text><rect x="9" y="129" width="12" height="12" style="stroke:none;fill:#808080;"/></svg><!-- Norbert.Reschke@gMail.com, https://creativecommons.org/licenses/by-nc-sa/4.0 -->
<!-- made with rasem: https://github.com/aseldawy/rasem -->