<?xml version="1.0" standalone="no"?>
<!DOCTYPE svg PUBLIC "-//W3C//DTD SVG 1.1//EN" "http://www.w3.org/Graphics/SVG/1.1/DTD/svg11.dtd">
<svg width="150" height="150" version="1.1" xmlns="http://www.w3.org/2000/svg" xmlns:xlink="http://www.w3.org/1999/xlink"><rect x="0" y="0" width="150" height="150" style="stroke:black;fill:#e9e9e9;stroke-width:4;"/><rect x="23" y="25" width="34" height="30" style="stroke:none;fill:#b3ff80;"/><text x="75" y="15" text-anchor="middle" dominant-baseline="auto" font-family="sans-serif" font-size="10" style="fill:#a0a0a0;">Lernsituation</text><text x="75" y="50" text-anchor="middle" dominant-baseline="auto" font-family="sans-serif" font-size="26" style="fill:black;">Religion</text><text x="75" y="70" text-anchor="middle" dominant-baseline="auto" font-family="sans-serif" font-size="16" style="fill:black;">ER oder KR.</text><rect x="15" y="75" width="120" height="60" style="stroke:black;fill:#e8b1ef;stroke-width:2;"/><text x="75" y="115" text-anchor="middle" dominant-baseline="auto" font-family="sans-serif" font-size="30" style="fill:black;">LS 5</text></svg><!-- Norbert.Reschke@gMail.com, https://creativecommons.org/licenses/by-nc-sa/4.0 -->
<!-- made with rasem: https://github.com/aseldawy/rasem -->