<?xml version="1.0" standalone="no"?>
<!DOCTYPE svg PUBLIC "-//W3C//DTD SVG 1.1//EN" "http://www.w3.org/Graphics/SVG/1.1/DTD/svg11.dtd">
<svg width="150" height="150" version="1.1" xmlns="http://www.w3.org/2000/svg" xmlns:xlink="http://www.w3.org/1999/xlink"><rect x="0" y="0" width="150" height="150" style="stroke:black;fill:#a4a4a4;stroke-width:4;"/><rect x="15" y="30" width="25" height="25" style="stroke:none;fill:#e1e1e1;"/><text x="75" y="15" text-anchor="middle" dominant-baseline="auto" font-family="sans-serif" font-size="10" style="fill:#e8b1ef;">Lernsituation</text><text x="75" y="50" text-anchor="middle" dominant-baseline="auto" font-family="sans-serif" font-size="20" style="fill:black;">Wirtschafts-</text><text x="75" y="70" text-anchor="middle" dominant-baseline="auto" font-family="sans-serif" font-size="13" style="fill:black;">und Betriebslehre</text><rect x="15" y="75" width="120" height="60" style="stroke:black;fill:#e8b1ef;stroke-width:2;"/><text x="75" y="115" text-anchor="middle" dominant-baseline="auto" font-family="sans-serif" font-size="30" style="fill:black;">LS 1</text></svg><!-- Norbert.Reschke@gMail.com, https://creativecommons.org/licenses/by-nc-sa/4.0 -->
<!-- made with rasem: https://github.com/aseldawy/rasem -->