<?xml version="1.0" standalone="no"?>
<!DOCTYPE svg PUBLIC "-//W3C//DTD SVG 1.1//EN" "http://www.w3.org/Graphics/SVG/1.1/DTD/svg11.dtd">
<svg width="42" height="27" version="1.1" xmlns="http://www.w3.org/2000/svg" xmlns:xlink="http://www.w3.org/1999/xlink"><defs><g id="arrow"><polygon points="0,0 20,-20 25,-15 11,0 25,15 20,20" style="stroke:#ffffff;fill:#ff0000;"/></g></defs><use xlink:href="#arrow" transform="translate(21, 27)scale(1, -1)rotate(90)"/></svg><!-- Norbert.Reschke@gMail.com, https://creativecommons.org/licenses/by-nc-sa/4.0 -->
<!-- made with rasem: https://github.com/aseldawy/rasem -->