<?xml version="1.0" standalone="no"?>
<!DOCTYPE svg PUBLIC "-//W3C//DTD SVG 1.1//EN" "http://www.w3.org/Graphics/SVG/1.1/DTD/svg11.dtd">
<svg width="1232" height="332" version="1.1" xmlns="http://www.w3.org/2000/svg" xmlns:xlink="http://www.w3.org/1999/xlink"><rect x="0" y="0" width="1232" height="332" style="stroke:none;fill:#ffffff;"/><text x="15" y="55" text-anchor="middle" font-family="sans-serif" font-size="18" style="fill:#000000;">BO</text><text x="15" y="85" text-anchor="middle" font-family="sans-serif" font-size="18" style="fill:#000000;">PE</text><text x="15" y="115" text-anchor="middle" font-family="sans-serif" font-size="18" style="fill:#000000;">M</text><text x="15" y="145" text-anchor="middle" font-family="sans-serif" font-size="18" style="fill:#000000;">E</text><text x="15" y="175" text-anchor="middle" font-family="sans-serif" font-size="18" style="fill:#000000;">WB</text><text x="15" y="205" text-anchor="middle" font-family="sans-serif" font-size="18" style="fill:#000000;">NW</text><text x="15" y="235" text-anchor="middle" font-family="sans-serif" font-size="18" style="fill:#000000;">DK</text><text x="15" y="265" text-anchor="middle" font-family="sans-serif" font-size="18" style="fill:#000000;">R</text><text x="15" y="295" text-anchor="middle" font-family="sans-serif" font-size="18" style="fill:#000000;">SG</text><text x="15" y="325" text-anchor="middle" font-family="sans-serif" font-size="18" style="fill:#000000;">PG</text><rect x="840" y="0" width="30" height="240" style="stroke:none;fill:#49db44;"/><rect x="840" y="270" width="30" height="330" style="stroke:none;fill:#49db44;"/><rect x="30" y="240" width="810" height="30" style="stroke:none;fill:#e8b16f;"/><rect x="870" y="240" width="360" height="30" style="stroke:none;fill:#bccdf7;opacity:0.5;"/><circle cx="855" cy="255" r="35" style="stroke:none;fill:#49db44;"/><line x1="330" y1="0" x2="330" y2="330" style="stroke:#ff0000;stroke-width:4;"/><line x1="630" y1="0" x2="630" y2="330" style="stroke:#ff0000;stroke-width:4;"/><line x1="930" y1="0" x2="930" y2="330" style="stroke:#ff0000;stroke-width:4;"/><line x1="30" y1="30" x2="30" y2="330" style="stroke:#a1a1a1;"/><text x="45" y="25" text-anchor="middle" font-family="sans-serif" font-size="20" style="fill:#000000;">1</text><line x1="60" y1="30" x2="60" y2="330" style="stroke:#a1a1a1;"/><text x="75" y="25" text-anchor="middle" font-family="sans-serif" font-size="20" style="fill:#000000;">2</text><line x1="90" y1="30" x2="90" y2="330" style="stroke:#a1a1a1;"/><text x="105" y="25" text-anchor="middle" font-family="sans-serif" font-size="20" style="fill:#000000;">3</text><line x1="120" y1="30" x2="120" y2="330" style="stroke:#a1a1a1;"/><text x="135" y="25" text-anchor="middle" font-family="sans-serif" font-size="20" style="fill:#000000;">4</text><line x1="150" y1="30" x2="150" y2="330" style="stroke:#a1a1a1;"/><text x="165" y="25" text-anchor="middle" font-family="sans-serif" font-size="20" style="fill:#000000;">5</text><line x1="180" y1="30" x2="180" y2="330" style="stroke:#a1a1a1;"/><text x="195" y="25" text-anchor="middle" font-family="sans-serif" font-size="20" style="fill:#000000;">6</text><line x1="210" y1="30" x2="210" y2="330" style="stroke:#a1a1a1;"/><text x="225" y="25" text-anchor="middle" font-family="sans-serif" font-size="20" style="fill:#000000;">7</text><line x1="240" y1="30" x2="240" y2="330" style="stroke:#a1a1a1;"/><text x="255" y="25" text-anchor="middle" font-family="sans-serif" font-size="20" style="fill:#000000;">8</text><line x1="270" y1="30" x2="270" y2="330" style="stroke:#a1a1a1;"/><text x="285" y="25" text-anchor="middle" font-family="sans-serif" font-size="20" style="fill:#000000;">9</text><line x1="300" y1="30" x2="300" y2="330" style="stroke:#a1a1a1;"/><text x="315" y="25" text-anchor="middle" font-family="sans-serif" font-size="20" style="fill:#000000;">10</text><line x1="330" y1="30" x2="330" y2="330" style="stroke:#a1a1a1;"/><text x="345" y="25" text-anchor="middle" font-family="sans-serif" font-size="20" style="fill:#000000;">11</text><line x1="360" y1="30" x2="360" y2="330" style="stroke:#a1a1a1;"/><text x="375" y="25" text-anchor="middle" font-family="sans-serif" font-size="20" style="fill:#000000;">12</text><line x1="390" y1="30" x2="390" y2="330" style="stroke:#a1a1a1;"/><text x="405" y="25" text-anchor="middle" font-family="sans-serif" font-size="20" style="fill:#000000;">13</text><line x1="420" y1="30" x2="420" y2="330" style="stroke:#a1a1a1;"/><text x="435" y="25" text-anchor="middle" font-family="sans-serif" font-size="20" style="fill:#000000;">14</text><line x1="450" y1="30" x2="450" y2="330" style="stroke:#a1a1a1;"/><text x="465" y="25" text-anchor="middle" font-family="sans-serif" font-size="20" style="fill:#000000;">15</text><line x1="480" y1="30" x2="480" y2="330" style="stroke:#a1a1a1;"/><text x="495" y="25" text-anchor="middle" font-family="sans-serif" font-size="20" style="fill:#000000;">16</text><line x1="510" y1="30" x2="510" y2="330" style="stroke:#a1a1a1;"/><text x="525" y="25" text-anchor="middle" font-family="sans-serif" font-size="20" style="fill:#000000;">17</text><line x1="540" y1="30" x2="540" y2="330" style="stroke:#a1a1a1;"/><text x="555" y="25" text-anchor="middle" font-family="sans-serif" font-size="20" style="fill:#000000;">18</text><line x1="570" y1="30" x2="570" y2="330" style="stroke:#a1a1a1;"/><text x="585" y="25" text-anchor="middle" font-family="sans-serif" font-size="20" style="fill:#000000;">19</text><line x1="600" y1="30" x2="600" y2="330" style="stroke:#a1a1a1;"/><text x="615" y="25" text-anchor="middle" font-family="sans-serif" font-size="20" style="fill:#000000;">20</text><line x1="630" y1="30" x2="630" y2="330" style="stroke:#a1a1a1;"/><text x="645" y="25" text-anchor="middle" font-family="sans-serif" font-size="20" style="fill:#000000;">21</text><line x1="660" y1="30" x2="660" y2="330" style="stroke:#a1a1a1;"/><text x="675" y="25" text-anchor="middle" font-family="sans-serif" font-size="20" style="fill:#000000;">22</text><line x1="690" y1="30" x2="690" y2="330" style="stroke:#a1a1a1;"/><text x="705" y="25" text-anchor="middle" font-family="sans-serif" font-size="20" style="fill:#000000;">23</text><line x1="720" y1="30" x2="720" y2="330" style="stroke:#a1a1a1;"/><text x="735" y="25" text-anchor="middle" font-family="sans-serif" font-size="20" style="fill:#000000;">24</text><line x1="750" y1="30" x2="750" y2="330" style="stroke:#a1a1a1;"/><text x="765" y="25" text-anchor="middle" font-family="sans-serif" font-size="20" style="fill:#000000;">25</text><line x1="780" y1="30" x2="780" y2="330" style="stroke:#a1a1a1;"/><text x="795" y="25" text-anchor="middle" font-family="sans-serif" font-size="20" style="fill:#000000;">26</text><line x1="810" y1="30" x2="810" y2="330" style="stroke:#a1a1a1;"/><text x="825" y="25" text-anchor="middle" font-family="sans-serif" font-size="20" style="fill:#000000;">27</text><line x1="840" y1="30" x2="840" y2="330" style="stroke:#a1a1a1;"/><text x="855" y="25" text-anchor="middle" font-family="sans-serif" font-size="20" style="fill:#000000;">28</text><line x1="870" y1="30" x2="870" y2="330" style="stroke:#a1a1a1;"/><text x="885" y="25" text-anchor="middle" font-family="sans-serif" font-size="20" style="fill:#000000;">29</text><line x1="900" y1="30" x2="900" y2="330" style="stroke:#a1a1a1;"/><text x="915" y="25" text-anchor="middle" font-family="sans-serif" font-size="20" style="fill:#000000;">30</text><line x1="930" y1="30" x2="930" y2="330" style="stroke:#a1a1a1;"/><text x="945" y="25" text-anchor="middle" font-family="sans-serif" font-size="20" style="fill:#000000;">31</text><line x1="960" y1="30" x2="960" y2="330" style="stroke:#a1a1a1;"/><text x="975" y="25" text-anchor="middle" font-family="sans-serif" font-size="20" style="fill:#000000;">32</text><line x1="990" y1="30" x2="990" y2="330" style="stroke:#a1a1a1;"/><text x="1005" y="25" text-anchor="middle" font-family="sans-serif" font-size="20" style="fill:#000000;">33</text><line x1="1020" y1="30" x2="1020" y2="330" style="stroke:#a1a1a1;"/><text x="1035" y="25" text-anchor="middle" font-family="sans-serif" font-size="20" style="fill:#000000;">34</text><line x1="1050" y1="30" x2="1050" y2="330" style="stroke:#a1a1a1;"/><text x="1065" y="25" text-anchor="middle" font-family="sans-serif" font-size="20" style="fill:#000000;">35</text><line x1="1080" y1="30" x2="1080" y2="330" style="stroke:#a1a1a1;"/><text x="1095" y="25" text-anchor="middle" font-family="sans-serif" font-size="20" style="fill:#000000;">36</text><line x1="1110" y1="30" x2="1110" y2="330" style="stroke:#a1a1a1;"/><text x="1125" y="25" text-anchor="middle" font-family="sans-serif" font-size="20" style="fill:#000000;">37</text><line x1="1140" y1="30" x2="1140" y2="330" style="stroke:#a1a1a1;"/><text x="1155" y="25" text-anchor="middle" font-family="sans-serif" font-size="20" style="fill:#000000;">38</text><line x1="1170" y1="30" x2="1170" y2="330" style="stroke:#a1a1a1;"/><text x="1185" y="25" text-anchor="middle" font-family="sans-serif" font-size="20" style="fill:#000000;">39</text><line x1="1200" y1="30" x2="1200" y2="330" style="stroke:#a1a1a1;"/><text x="1215" y="25" text-anchor="middle" font-family="sans-serif" font-size="20" style="fill:#000000;">40</text><line x1="1230" y1="30" x2="1230" y2="330" style="stroke:#a1a1a1;"/><text x="1245" y="25" text-anchor="middle" font-family="sans-serif" font-size="20" style="fill:#000000;">41</text><line x1="30" y1="30" x2="1230" y2="30" style="stroke:#a1a1a1;"/><line x1="30" y1="60" x2="1230" y2="60" style="stroke:#a1a1a1;"/><line x1="30" y1="90" x2="1230" y2="90" style="stroke:#a1a1a1;"/><line x1="30" y1="120" x2="1230" y2="120" style="stroke:#a1a1a1;"/><line x1="30" y1="150" x2="1230" y2="150" style="stroke:#a1a1a1;"/><line x1="30" y1="180" x2="1230" y2="180" style="stroke:#a1a1a1;"/><line x1="30" y1="210" x2="1230" y2="210" style="stroke:#a1a1a1;"/><line x1="30" y1="240" x2="1230" y2="240" style="stroke:#a1a1a1;"/><line x1="30" y1="270" x2="1230" y2="270" style="stroke:#a1a1a1;"/><line x1="30" y1="300" x2="1230" y2="300" style="stroke:#a1a1a1;"/><line x1="30" y1="330" x2="1230" y2="330" style="stroke:#a1a1a1;"/><rect x="570" y="30" width="60" height="30" style="stroke:#000000;fill:none;stroke-width:2;"/><text x="575" y="58" text-anchor="left" font-family="sans-serif" font-size="15" style="fill:#000000;">AS 1.1</text><rect x="630" y="30" width="60" height="30" style="stroke:#000000;fill:none;stroke-width:2;"/><text x="635" y="58" text-anchor="left" font-family="sans-serif" font-size="15" style="fill:#000000;">AS 1.2</text><rect x="1140" y="30" width="60" height="30" style="stroke:#000000;fill:none;stroke-width:2;"/><text x="1145" y="58" text-anchor="left" font-family="sans-serif" font-size="15" style="fill:#000000;">AS 5.1</text><rect x="1200" y="30" width="30" height="30" style="stroke:#000000;fill:none;stroke-width:2;"/><text x="1205" y="58" text-anchor="left" font-family="sans-serif" font-size="15" style="fill:#000000;">6.1</text><rect x="30" y="60" width="60" height="30" style="stroke:#000000;fill:none;stroke-width:2;"/><text x="35" y="88" text-anchor="left" font-family="sans-serif" font-size="15" style="fill:#000000;">AS 2.1</text><rect x="90" y="60" width="180" height="30" style="stroke:#000000;fill:none;stroke-width:2;"/><text x="100" y="88" text-anchor="left" font-family="sans-serif" font-size="15" style="fill:#000000;">PE AS 2.2</text><rect x="270" y="60" width="90" height="30" style="stroke:#000000;fill:none;stroke-width:2;"/><text x="279" y="88" text-anchor="left" font-family="sans-serif" font-size="15" style="fill:#000000;">PE AS 2.3</text><rect x="360" y="60" width="210" height="30" style="stroke:#000000;fill:none;stroke-width:2;"/><text x="370" y="88" text-anchor="left" font-family="sans-serif" font-size="15" style="fill:#000000;">Produkterstellung AS 2.4</text><rect x="690" y="60" width="210" height="30" style="stroke:#000000;fill:none;stroke-width:2;"/><text x="700" y="88" text-anchor="left" font-family="sans-serif" font-size="15" style="fill:#000000;">Produkterstellung AS 3.1</text><rect x="900" y="60" width="90" height="30" style="stroke:#000000;fill:none;stroke-width:2;"/><text x="909" y="88" text-anchor="left" font-family="sans-serif" font-size="15" style="fill:#000000;">PE AS 3.2</text><rect x="990" y="60" width="90" height="30" style="stroke:#000000;fill:none;stroke-width:2;"/><text x="999" y="88" text-anchor="left" font-family="sans-serif" font-size="15" style="fill:#000000;">PE AS 4.1</text><rect x="1080" y="60" width="60" height="30" style="stroke:#000000;fill:none;stroke-width:2;"/><text x="1085" y="88" text-anchor="left" font-family="sans-serif" font-size="15" style="fill:#000000;">AS 4.2</text><rect x="30" y="90" width="240" height="30" style="stroke:#000000;fill:none;stroke-width:2;"/><text x="40" y="118" text-anchor="left" font-family="sans-serif" font-size="15" style="fill:#000000;">Mathematik AS 1</text><rect x="270" y="90" width="360" height="30" style="stroke:#000000;fill:none;stroke-width:2;"/><text x="280" y="118" text-anchor="left" font-family="sans-serif" font-size="15" style="fill:#000000;">Mathematik AS 3</text><rect x="630" y="90" width="420" height="30" style="stroke:#000000;fill:none;stroke-width:2;"/><text x="640" y="118" text-anchor="left" font-family="sans-serif" font-size="15" style="fill:#000000;">Mathematik AS 4</text><rect x="1050" y="90" width="120" height="30" style="stroke:#000000;fill:none;stroke-width:2;"/><text x="1060" y="118" text-anchor="left" font-family="sans-serif" font-size="15" style="fill:#000000;">Mathe AS 2</text><rect x="1170" y="90" width="60" height="30" style="stroke:#000000;fill:none;stroke-width:2;"/><text x="1180" y="118" text-anchor="left" font-family="sans-serif" font-size="15" style="fill:#000000;">AS 5</text><rect x="30" y="120" width="210" height="30" style="stroke:#000000;fill:none;stroke-width:2;"/><text x="40" y="148" text-anchor="left" font-family="sans-serif" font-size="15" style="fill:#000000;">Englisch AS 3</text><rect x="240" y="120" width="300" height="30" style="stroke:#000000;fill:none;stroke-width:2;"/><text x="250" y="148" text-anchor="left" font-family="sans-serif" font-size="15" style="fill:#000000;">Englisch AS 2</text><rect x="540" y="120" width="300" height="30" style="stroke:#000000;fill:none;stroke-width:2;"/><text x="550" y="148" text-anchor="left" font-family="sans-serif" font-size="15" style="fill:#000000;">Englisch AS 4</text><rect x="840" y="120" width="120" height="30" style="stroke:#000000;fill:none;stroke-width:2;"/><text x="850" y="148" text-anchor="left" font-family="sans-serif" font-size="15" style="fill:#000000;">Englisch AS 5</text><rect x="960" y="120" width="180" height="30" style="stroke:#000000;fill:none;stroke-width:2;"/><text x="970" y="148" text-anchor="left" font-family="sans-serif" font-size="15" style="fill:#000000;">Englisch AS 6</text><rect x="1140" y="120" width="90" height="30" style="stroke:#000000;fill:none;stroke-width:2;"/><text x="1170" y="148" text-anchor="left" font-family="sans-serif" font-size="15" style="fill:#000000;">AS 1</text><rect x="30" y="150" width="450" height="30" style="stroke:#000000;fill:none;stroke-width:2;"/><text x="40" y="178" text-anchor="left" font-family="sans-serif" font-size="15" style="fill:#000000;">Wirtschafts- und Betriebslehre AS 2</text><rect x="480" y="150" width="300" height="30" style="stroke:#000000;fill:none;stroke-width:2;"/><text x="490" y="178" text-anchor="left" font-family="sans-serif" font-size="15" style="fill:#000000;">Wirtschafts- und Betriebslehre AS 3</text><rect x="780" y="150" width="450" height="30" style="stroke:#000000;fill:none;stroke-width:2;"/><text x="790" y="178" text-anchor="left" font-family="sans-serif" font-size="15" style="fill:#000000;">Wirtschafts- und Betriebslehre AS 1</text><rect x="30" y="210" width="150" height="30" style="stroke:#000000;fill:none;stroke-width:2;"/><text x="40" y="238" text-anchor="left" font-family="sans-serif" font-size="15" style="fill:#000000;">Deutsch AS 2</text><rect x="180" y="210" width="300" height="30" style="stroke:#000000;fill:none;stroke-width:2;"/><text x="190" y="238" text-anchor="left" font-family="sans-serif" font-size="15" style="fill:#000000;">Deutsch/Kommunikation AS 1</text><rect x="480" y="210" width="300" height="30" style="stroke:#000000;fill:none;stroke-width:2;"/><text x="490" y="238" text-anchor="left" font-family="sans-serif" font-size="15" style="fill:#000000;">Deutsch/Kommunikation AS 5</text><rect x="780" y="210" width="300" height="30" style="stroke:#000000;fill:none;stroke-width:2;"/><text x="790" y="238" text-anchor="left" font-family="sans-serif" font-size="15" style="fill:#000000;">Deutsch/Kommunikation AS 3</text><rect x="1080" y="210" width="150" height="30" style="stroke:#000000;fill:none;stroke-width:2;"/><text x="1090" y="238" text-anchor="left" font-family="sans-serif" font-size="15" style="fill:#000000;">Deutsch AS 4</text><rect x="30" y="240" width="210" height="30" style="stroke:#000000;fill:none;stroke-width:2;"/><text x="40" y="268" text-anchor="left" font-family="sans-serif" font-size="15" style="fill:#000000;">Religion ER/KR AS 3</text><rect x="240" y="240" width="210" height="30" style="stroke:#000000;fill:none;stroke-width:2;"/><text x="250" y="268" text-anchor="left" font-family="sans-serif" font-size="15" style="fill:#000000;">Religion ER/KR AS 1</text><rect x="450" y="240" width="180" height="30" style="stroke:#000000;fill:none;stroke-width:2;"/><text x="460" y="268" text-anchor="left" font-family="sans-serif" font-size="15" style="fill:#000000;">Religion ER/KR AS 2</text><rect x="630" y="240" width="210" height="30" style="stroke:#000000;fill:none;stroke-width:2;"/><text x="640" y="268" text-anchor="left" font-family="sans-serif" font-size="15" style="fill:#000000;">Religion ER/KR AS 4</text><rect x="840" y="240" width="210" height="15" style="stroke:#000000;fill:none;stroke-width:2;"/><text x="850" y="253.0" text-anchor="left" font-family="sans-serif" font-size="14" style="fill:#000000;">Religion ER AS 6</text><rect x="1050" y="240" width="180" height="15" style="stroke:#000000;fill:none;stroke-width:2;"/><text x="1060" y="253.0" text-anchor="left" font-family="sans-serif" font-size="14" style="fill:#000000;">Religion ER AS 5</text><rect x="840" y="255.0" width="180" height="15" style="stroke:#000000;fill:none;stroke-width:2;"/><text x="850" y="268" text-anchor="left" font-family="sans-serif" font-size="14" style="fill:#000000;">Religion KR AS 5</text><rect x="1020" y="255.0" width="210" height="15" style="stroke:#000000;fill:none;stroke-width:2;"/><text x="1030" y="268" text-anchor="left" font-family="sans-serif" font-size="14" style="fill:#000000;">Religion KR AS 6</text><rect x="30" y="270" width="240" height="30" style="stroke:#000000;fill:none;stroke-width:2;"/><text x="40" y="298" text-anchor="left" font-family="sans-serif" font-size="15" style="fill:#000000;">Sport AS 1</text><rect x="270" y="270" width="180" height="30" style="stroke:#000000;fill:none;stroke-width:2;"/><text x="280" y="298" text-anchor="left" font-family="sans-serif" font-size="15" style="fill:#000000;">Sport AS 2</text><rect x="450" y="270" width="180" height="30" style="stroke:#000000;fill:none;stroke-width:2;"/><text x="460" y="298" text-anchor="left" font-family="sans-serif" font-size="15" style="fill:#000000;">Sport AS 6</text><rect x="630" y="270" width="180" height="30" style="stroke:#000000;fill:none;stroke-width:2;"/><text x="640" y="298" text-anchor="left" font-family="sans-serif" font-size="15" style="fill:#000000;">Sport AS 4</text><rect x="810" y="270" width="240" height="30" style="stroke:#000000;fill:none;stroke-width:2;"/><text x="820" y="298" text-anchor="left" font-family="sans-serif" font-size="15" style="fill:#000000;">Sport AS 3</text><rect x="1050" y="270" width="180" height="30" style="stroke:#000000;fill:none;stroke-width:2;"/><text x="1060" y="298" text-anchor="left" font-family="sans-serif" font-size="15" style="fill:#000000;">Sport AS 5</text><rect x="30" y="300" width="240" height="30" style="stroke:#000000;fill:none;stroke-width:2;"/><text x="40" y="328" text-anchor="left" font-family="sans-serif" font-size="15" style="fill:#000000;">Politik AS 2</text><rect x="270" y="300" width="240" height="30" style="stroke:#000000;fill:none;stroke-width:2;"/><text x="280" y="328" text-anchor="left" font-family="sans-serif" font-size="15" style="fill:#000000;">Politik AS 1</text><rect x="510" y="300" width="450" height="30" style="stroke:#000000;fill:none;stroke-width:2;"/><text x="520" y="328" text-anchor="left" font-family="sans-serif" font-size="15" style="fill:#000000;">Politik AS 4</text><rect x="960" y="300" width="270" height="30" style="stroke:#000000;fill:none;stroke-width:2;"/><text x="970" y="328" text-anchor="left" font-family="sans-serif" font-size="15" style="fill:#000000;">Politik AS 3</text><circle cx="855" cy="255" r="25" style="stroke:none;fill:#ffffff;opacity:0.7;"/><text x="855" y="254" text-anchor="middle" font-family="sans-serif" font-size="15" style="fill:#000000;">R</text></svg><!-- Norbert.Reschke@gMail.com, https://creativecommons.org/licenses/by-nc-sa/4.0 -->
<!-- made with rasem: https://github.com/aseldawy/rasem -->