<?xml version="1.0" standalone="no"?>
<!DOCTYPE svg PUBLIC "-//W3C//DTD SVG 1.1//EN" "http://www.w3.org/Graphics/SVG/1.1/DTD/svg11.dtd">
<svg width="150" height="150" version="1.1" xmlns="http://www.w3.org/2000/svg" xmlns:xlink="http://www.w3.org/1999/xlink"><rect x="0" y="0" width="150" height="150" style="stroke:none;fill:#ffffff;"/><text x="0" y="0" text-anchor="left" font-family="sans-serif" font-size="8" style="fill:#bccdf7;" transform="translate(1, 149)">Schulwochen</text><circle cx="75" cy="75" r="70" style="stroke:none;fill:#bccdf7;opacity:0.5;"/><path d=" M0,0 L0,-70 A70,70 0 1,1 -56.63118960624633,-41.14496766047311 Z" style="stroke:none;fill:#e8b16f;opacity:1.0;" transform="translate(75, 75)"/><circle cx="75" cy="75" r="70" style="stroke:#000000;fill:none;"/><circle cx="75" cy="75" r="35" style="stroke:#000000;fill:#ffffff;"/><line x1="0" y1="-31" x2="0" y2="-74" style="stroke:#000000;" transform="translate(75, 75)"/><line x1="0" y1="-31" x2="0" y2="-74" style="stroke:#000000;" transform="translate(75, 75)rotate(90)"/><line x1="0" y1="-31" x2="0" y2="-71" style="stroke:#000000;" transform="translate(75, 75)scale(1, -1)"/><line x1="0" y1="-31" x2="0" y2="-74" style="stroke:#000000;" transform="translate(75, 75)rotate(-90)"/><rect x="-5.3" y="-74" width="10.6" height="47" style="stroke:#000000;fill:#49db44;opacity:1.0;" transform="translate(75, 75)rotate(301.5)"/><text x="79.94292303085423" y="15.19420797481294" text-anchor="middle" font-family="sans-serif" font-size="7" style="fill:#000000;">1</text><text x="89.70705792292205" y="16.740695014946375" text-anchor="middle" font-family="sans-serif" font-size="7" style="fill:#000000;">2</text><text x="99.10905623900065" y="19.795589451788935" text-anchor="middle" font-family="sans-serif" font-size="7" style="fill:#000000;">3</text><text x="107.91740957710478" y="24.283669645692193" text-anchor="middle" font-family="sans-serif" font-size="7" style="fill:#000000;">4</text><text x="115.91522704480157" y="30.09442416719805" text-anchor="middle" font-family="sans-serif" font-size="7" style="fill:#000000;">5</text><text x="122.90557583280196" y="37.08477295519844" text-anchor="middle" font-family="sans-serif" font-size="7" style="fill:#000000;">6</text><text x="128.71633035430781" y="45.082590422895215" text-anchor="middle" font-family="sans-serif" font-size="7" style="fill:#000000;">7</text><text x="133.20441054821106" y="53.89094376099934" text-anchor="middle" font-family="sans-serif" font-size="7" style="fill:#000000;">8</text><text x="136.25930498505363" y="63.29294207707795" text-anchor="middle" font-family="sans-serif" font-size="7" style="fill:#000000;">9</text><text x="137.80579202518706" y="73.05707696914577" text-anchor="middle" font-family="sans-serif" font-size="7" style="fill:#000000;">10</text><text x="137.80579202518706" y="82.94292303085423" text-anchor="middle" font-family="sans-serif" font-size="7" style="fill:#000000;">11</text><text x="136.25930498505363" y="92.70705792292202" text-anchor="middle" font-family="sans-serif" font-size="7" style="fill:#000000;">12</text><text x="133.20441054821106" y="102.10905623900065" text-anchor="middle" font-family="sans-serif" font-size="7" style="fill:#000000;">13</text><text x="128.71633035430781" y="110.91740957710478" text-anchor="middle" font-family="sans-serif" font-size="7" style="fill:#000000;">14</text><text x="122.90557583280196" y="118.91522704480155" text-anchor="middle" font-family="sans-serif" font-size="7" style="fill:#000000;">15</text><text x="115.91522704480158" y="125.90557583280196" text-anchor="middle" font-family="sans-serif" font-size="7" style="fill:#000000;">16</text><text x="107.91740957710479" y="131.71633035430781" text-anchor="middle" font-family="sans-serif" font-size="7" style="fill:#000000;">17</text><text x="99.10905623900067" y="136.20441054821106" text-anchor="middle" font-family="sans-serif" font-size="7" style="fill:#000000;">18</text><text x="89.70705792292205" y="139.25930498505363" text-anchor="middle" font-family="sans-serif" font-size="7" style="fill:#000000;">19</text><text x="79.94292303085425" y="140.80579202518706" text-anchor="middle" font-family="sans-serif" font-size="7" style="fill:#000000;">20</text><text x="70.05707696914578" y="140.80579202518706" text-anchor="middle" font-family="sans-serif" font-size="7" style="fill:#000000;">21</text><text x="60.29294207707794" y="139.25930498505363" text-anchor="middle" font-family="sans-serif" font-size="7" style="fill:#000000;">22</text><text x="50.89094376099938" y="136.2044105482111" text-anchor="middle" font-family="sans-serif" font-size="7" style="fill:#000000;">23</text><text x="42.08259042289523" y="131.71633035430781" text-anchor="middle" font-family="sans-serif" font-size="7" style="fill:#000000;">24</text><text x="34.08477295519844" y="125.90557583280196" text-anchor="middle" font-family="sans-serif" font-size="7" style="fill:#000000;">25</text><text x="27.09442416719807" y="118.9152270448016" text-anchor="middle" font-family="sans-serif" font-size="7" style="fill:#000000;">26</text><text x="21.28366964569218" y="110.91740957710476" text-anchor="middle" font-family="sans-serif" font-size="7" style="fill:#000000;">27</text><text x="16.795589451788928" y="102.10905623900064" text-anchor="middle" font-family="sans-serif" font-size="7" style="fill:#000000;">28</text><text x="13.740695014946368" y="92.70705792292202" text-anchor="middle" font-family="sans-serif" font-size="7" style="fill:#000000;">29</text><text x="12.19420797481294" y="82.94292303085427" text-anchor="middle" font-family="sans-serif" font-size="7" style="fill:#000000;">30</text><text x="12.194207974812933" y="73.05707696914581" text-anchor="middle" font-family="sans-serif" font-size="7" style="fill:#000000;">31</text><text x="13.740695014946361" y="63.292942077077996" text-anchor="middle" font-family="sans-serif" font-size="7" style="fill:#000000;">32</text><text x="16.795589451788942" y="53.890943760999335" text-anchor="middle" font-family="sans-serif" font-size="7" style="fill:#000000;">33</text><text x="21.2836696456922" y="45.08259042289521" text-anchor="middle" font-family="sans-serif" font-size="7" style="fill:#000000;">34</text><text x="0" y="0" text-anchor="middle" font-family="sans-serif" font-size="4" style="fill:#000000;" transform="translate(75, 54)">Hans-Sachs</text><text x="0" y="0" text-anchor="middle" font-family="sans-serif" font-size="4" style="fill:#000000;" transform="translate(75, 58)">Berufskolleg</text><text x="75" y="90" text-anchor="middle" font-family="sans-serif" font-size="30" style="fill:#000000;">34</text><text x="75" y="66" text-anchor="middle" font-family="sans-serif" font-size="10" style="fill:#000000;">Woche</text><text x="0" y="0" text-anchor="middle" font-family="sans-serif" font-size="3" style="fill:#000000;" transform="translate(75, 94)">Ausbildungsvorbereitung</text></svg><!-- Norbert.Reschke@gMail.com, https://creativecommons.org/licenses/by-nc-sa/4.0 -->
<!-- made with rasem: https://github.com/aseldawy/rasem -->